{
  "project_info": {
    "project_number": "742382815862",
    "firebase_url": "https://gcp-tutorial-289700.firebaseio.com",
    "project_id": "gcp-tutorial-289700",
    "storage_bucket": "gcp-tutorial-289700.appspot.com"
  },
  "client": [
    {
      "client_info": {
        "mobilesdk_app_id": "1:742382815862:android:9a7abce9eddc0603a5ad57",
        "android_client_info": {
          "package_name": "dwi.bagas.appx0d"
        }
      },
      "oauth_client": [
        {
          "client_id": "742382815862-mdam28mfi7ap1bj76qc1qon8lunt5kmo.apps.googleusercontent.com",
          "client_type": 3
        }
      ],
      "api_key": [
        {
          "current_key": "AIzaSyCwkuMw5OUY_hNLMFdbZNc2tr-09_Zuu3Q"
        }
      ],
      "services": {
        "appinvite_service": {
          "other_platform_oauth_client": [
            {
              "client_id": "742382815862-mdam28mfi7ap1bj76qc1qon8lunt5kmo.apps.googleusercontent.com",
              "client_type": 3
            }
          ]
        }
      }
    },
    {
      "client_info": {
        "mobilesdk_app_id": "1:742382815862:android:7320c8298e093ea0a5ad57",
        "android_client_info": {
          "package_name": "dwi.bagas.appx0e"
        }
      },
      "oauth_client": [
        {
          "client_id": "742382815862-mdam28mfi7ap1bj76qc1qon8lunt5kmo.apps.googleusercontent.com",
          "client_type": 3
        }
      ],
      "api_key": [
        {
          "current_key": "AIzaSyCwkuMw5OUY_hNLMFdbZNc2tr-09_Zuu3Q"
        }
      ],
      "services": {
        "appinvite_service": {
          "other_platform_oauth_client": [
            {
              "client_id": "742382815862-mdam28mfi7ap1bj76qc1qon8lunt5kmo.apps.googleusercontent.com",
              "client_type": 3
            }
          ]
        }
      }
    },
    {
      "client_info": {
        "mobilesdk_app_id": "1:742382815862:android:0d43191b3316884aa5ad57",
        "android_client_info": {
          "package_name": "dwi.bagas.appx0f"
        }
      },
      "oauth_client": [
        {
          "client_id": "742382815862-mdam28mfi7ap1bj76qc1qon8lunt5kmo.apps.googleusercontent.com",
          "client_type": 3
        }
      ],
      "api_key": [
        {
          "current_key": "AIzaSyCwkuMw5OUY_hNLMFdbZNc2tr-09_Zuu3Q"
        }
      ],
      "services": {
        "appinvite_service": {
          "other_platform_oauth_client": [
            {
              "client_id": "742382815862-mdam28mfi7ap1bj76qc1qon8lunt5kmo.apps.googleusercontent.com",
              "client_type": 3
            }
          ]
        }
      }
    },
    {
      "client_info": {
        "mobilesdk_app_id": "1:742382815862:android:6fd493292b6a3032a5ad57",
        "android_client_info": {
          "package_name": "dwi.bagas.appx10"
        }
      },
      "oauth_client": [
        {
          "client_id": "742382815862-mdam28mfi7ap1bj76qc1qon8lunt5kmo.apps.googleusercontent.com",
          "client_type": 3
        }
      ],
      "api_key": [
        {
          "current_key": "AIzaSyCwkuMw5OUY_hNLMFdbZNc2tr-09_Zuu3Q"
        }
      ],
      "services": {
        "appinvite_service": {
          "other_platform_oauth_client": [
            {
              "client_id": "742382815862-mdam28mfi7ap1bj76qc1qon8lunt5kmo.apps.googleusercontent.com",
              "client_type": 3
            }
          ]
        }
      }
    }
  ],
  "configuration_version": "1"
}